IS415 - Hands-on Exercise 2
…
mutate
calculation

mutate(YOUNG = rowSums(.[3:6]) + rowSums(.[12]))

mutate(YOUNG = …): add new column ‘YOUNG’ to dataset

rowSums(.[3:6]): calculate sum of values across column 3 to 6 each row

rowSums(.[12]): return only column 12 value

popdata2020

# A tibble: 332 × 7
   PA         SZ                   YOUNG `ECONOMY ACTIVE`  AGED TOTAL DEPENDENCY
   <chr>      <chr>                <dbl>            <dbl> <dbl> <dbl>      <dbl>
 1 Ang Mo Kio Ang Mo Kio Town Cen…  1440             2610   760  4810      0.843
 2 Ang Mo Kio Cheng San             6640            15460  6050 28150      0.821
 3 Ang Mo Kio Chong Boon            6150            13950  6470 26570      0.905
 4 Ang Mo Kio Kebun Bahru           5540            12090  5120 22750      0.882
 5 Ang Mo Kio Sembawang Hills       2100             3410  1310  6820      1    
 6 Ang Mo Kio Shangri-La            3960             8420  3610 15990      0.899
 7 Ang Mo Kio Tagore                2220             4200  1530  7950      0.893
 8 Ang Mo Kio Townsville            4690            11450  5100 21240      0.855
 9 Ang Mo Kio Yio Chu Kang             0                0     0     0    NaN    
10 Ang Mo Kio Yio Chu Kang East     1220             2300   750  4270      0.857
# ℹ 322 more rows
…
