IS415 - Take-home Exercise 2: Application of Geospatial Analysis Methods to Discover Thailand Drug Abuse at the Province Level
…
Summary statistics

summary_stats <- drug_offenses_by_province %>%
  group_by(province_name, year) %>%
  summarise(
    total_cases = sum(case_count, na.rm = TRUE),
    geometry = first(geometry)
    )

write_rds(summary_stats, "data/rds/summary_stats.rds")

summary_stats <- read_rds("data/rds/summary_stats.rds")
summary_stats

# A tibble: 462 × 4
# Groups:   province_name [77]
   province_name  year total_cases                                      geometry
   <chr>         <dbl>       <dbl>                            <MULTIPOLYGON [°]>
 1 Amnat Charoen  2017        5076 (((104.9654 16.28154, 104.9654 16.28148, 104…
 2 Amnat Charoen  2018        5651 (((104.9654 16.28154, 104.9654 16.28148, 104…
 3 Amnat Charoen  2019        7339 (((104.9654 16.28154, 104.9654 16.28148, 104…
 4 Amnat Charoen  2020        3949 (((104.9654 16.28154, 104.9654 16.28148, 104…
 5 Amnat Charoen  2021        8961 (((104.9654 16.28154, 104.9654 16.28148, 104…
 6 Amnat Charoen  2022        4459 (((104.9654 16.28154, 104.9654 16.28148, 104…
 7 Ang Thong      2017        1614 (((100.3381 14.79649, 100.3384 14.79607, 100…
 8 Ang Thong      2018        2717 (((100.3381 14.79649, 100.3384 14.79607, 100…
 9 Ang Thong      2019        2781 (((100.3381 14.79649, 100.3384 14.79607, 100…
10 Ang Thong      2020        2636 (((100.3381 14.79649, 100.3384 14.79607, 100…
# ℹ 452 more rows
…
